Biostat 200C Homework 2
…
Read in the data of COVID-19 cases reported on 2020-04-04.

county_count <- read_csv("~/Downloads/04-04-2020.csv.gz") %>%
  # cast fips into dbl for use as a key for joining tables
  mutate(FIPS = as.numeric(FIPS)) %>%
  filter(Country_Region == "US") %>%
  print(width = Inf)

# A tibble: 2,421 × 12
    FIPS Admin2    Province_State Country_Region Last_Update           Lat
   <dbl> <chr>     <chr>          <chr>          <dttm>              <dbl>
 1 45001 Abbeville South Carolina US             2020-04-04 23:34:21  34.2
 2 22001 Acadia    Louisiana      US             2020-04-04 23:34:21  30.3
 3 51001 Accomack  Virginia       US             2020-04-04 23:34:21  37.8
 4 16001 Ada       Idaho          US             2020-04-04 23:34:21  43.5
 5 19001 Adair     Iowa           US             2020-04-04 23:34:21  41.3
 6 21001 Adair     Kentucky       US             2020-04-04 23:34:21  37.1
 7 29001 Adair     Missouri       US             2020-04-04 23:34:21  40.2
 8 40001 Adair     Oklahoma       US             2020-04-04 23:34:21  35.9
 9  8001 Adams     Colorado       US             2020-04-04 23:34:21  39.9
10 16003 Adams     Idaho          US             2020-04-04 23:34:21  44.9
    Long_ Confirmed Deaths Recovered Active Combined_Key                 
    <dbl>     <dbl>  <dbl>     <dbl>  <dbl> <chr>                        
 1  -82.5         6      0         0      0 Abbeville, South Carolina, US
 2  -92.4        65      2         0      0 Acadia, Louisiana, US        
 3  -75.6         8      0         0      0 Accomack, Virginia, US       
 4 -116.        360      3         0      0 Ada, Idaho, US               
 5  -94.5         1      0         0      0 Adair, Iowa, US              
 6  -85.3         3      0         0      0 Adair, Kentucky, US          
 7  -92.6        10      0         0      0 Adair, Missouri, US          
 8  -94.7        14      0         0      0 Adair, Oklahoma, US          
 9 -104.        294      9         0      0 Adams, Colorado, US          
10 -116.          1      0         0      0 Adams, Idaho, US             
# ℹ 2,411 more rows
…
We want to exclude entries from Diamond Princess, Grand Princess, Guam, Northern Mariana Islands, Puerto Rico, Recovered, and Virgin Islands, and only consider counties from 50 states and DC.

county_count <- county_count %>%
  filter(!(province_state %in% c("Diamond Princess", "Grand Princess", 
                                 "Recovered", "Guam", "Northern Mariana Islands", 
                                 "Puerto Rico", "Virgin Islands"))) %>%
  print(width = Inf)

# A tibble: 2,413 × 12
    fips admin2    province_state country_region last_update           lat
   <dbl> <chr>     <chr>          <chr>          <dttm>              <dbl>
 1 45001 Abbeville South Carolina US             2020-04-04 23:34:21  34.2
 2 22001 Acadia    Louisiana      US             2020-04-04 23:34:21  30.3
 3 51001 Accomack  Virginia       US             2020-04-04 23:34:21  37.8
 4 16001 Ada       Idaho          US             2020-04-04 23:34:21  43.5
 5 19001 Adair     Iowa           US             2020-04-04 23:34:21  41.3
 6 21001 Adair     Kentucky       US             2020-04-04 23:34:21  37.1
 7 29001 Adair     Missouri       US             2020-04-04 23:34:21  40.2
 8 40001 Adair     Oklahoma       US             2020-04-04 23:34:21  35.9
 9  8001 Adams     Colorado       US             2020-04-04 23:34:21  39.9
10 16003 Adams     Idaho          US             2020-04-04 23:34:21  44.9
    long_ confirmed deaths recovered active combined_key                 
    <dbl>     <dbl>  <dbl>     <dbl>  <dbl> <chr>                        
 1  -82.5         6      0         0      0 Abbeville, South Carolina, US
 2  -92.4        65      2         0      0 Acadia, Louisiana, US        
 3  -75.6         8      0         0      0 Accomack, Virginia, US       
 4 -116.        360      3         0      0 Ada, Idaho, US               
 5  -94.5         1      0         0      0 Adair, Iowa, US              
 6  -85.3         3      0         0      0 Adair, Kentucky, US          
 7  -92.6        10      0         0      0 Adair, Missouri, US          
 8  -94.7        14      0         0      0 Adair, Oklahoma, US          
 9 -104.        294      9         0      0 Adams, Colorado, US          
10 -116.          1      0         0      0 Adams, Idaho, US             
# ℹ 2,403 more rows
…
